{
    "successPageTitle": "Check your email",
    "missingNameError": "Please enter your name.",
    "missingEmailError": "Enter your email address.",
    "missingPasswordError": "Enter your password.\n\t\t\t",
    "uncheckedTermsError": "Please agree with the Terms to sign up.",
    "invalidEmailError": "Enter a valid email address.",
    "shortPasswordError": "Please use 8+ characters for secure password.",
    "weakPasswordMessage": "Weak password",
    "sosoPasswordMessage": "So-so password",
    "goodPasswordMessage": "Good password",
    "existingEmailError": "Sorry, this email is already registered" 
}